{
  "project_info": {
    "project_number": "537221564998",
    "firebase_url": "https://pharmacy-qr.firebaseio.com",
    "project_id": "pharmacy-qr",
    "storage_bucket": "pharmacy-qr.appspot.com"
  },
  "client": [
    {
      "client_info": {
        "mobilesdk_app_id": "1:537221564998:android:0c417a8825d81551",
        "android_client_info": {
          "package_name": "com.pharmacyqr"
        }
      },
      "oauth_client": [
        {
          "client_id": "537221564998-cndp4uoc9tjatph7v2bc617h5o9l4ijk.apps.googleusercontent.com",
          "client_type": 3
        }
      ],
      "api_key": [
        {
          "current_key": "AIzaSyDGZPd3MKon99yLZGkzMl1Bb50-4VeV18M"
        }
      ],
      "services": {
        "analytics_service": {
          "status": 1
        },
        "appinvite_service": {
          "status": 1,
          "other_platform_oauth_client": []
        },
        "ads_service": {
          "status": 2
        }
      }
    }
  ],
  "configuration_version": "1"
}